<svg width="12" height="12" viewBox="0 0 12 12" fill="none" xmlns="http://www.w3.org/2000/svg">
<circle cx="6" cy="6" r="6" fill="#B3B3B3"/>
<path d="M8 4L4 8" stroke="#FAF8F7" stroke-linecap="round" stroke-linejoin="round"/>
<path d="M4 4L8 8" stroke="#FAF8F7" stroke-linecap="round" stroke-linejoin="round"/>
</svg>
