<svg width="24" height="24" viewBox="0 0 24 24" fill="none" xmlns="http://www.w3.org/2000/svg">
<path d="M17 10H3" stroke="#303435" stroke-width="1.5" stroke-linecap="round" stroke-linejoin="round"/>
<path d="M21 6H3" stroke="#303435" stroke-width="1.5" stroke-linecap="round" stroke-linejoin="round"/>
<path d="M21 14H3" stroke="#303435" stroke-width="1.5" stroke-linecap="round" stroke-linejoin="round"/>
<path d="M17 18H3" stroke="#303435" stroke-width="1.5" stroke-linecap="round" stroke-linejoin="round"/>
</svg>
